# Blender MTL File: 'None'
# Material Count: 7

newmtl (null)
Ns 96.078431
Ka 1.000000 1.000000 1.000000
Kd 0.574490 0.640000 0.513068
Ks 0.500000 0.500000 0.500000
Ke 0.000000 0.000000 0.000000
Ni 1.000000
d 1.000000
illum 2

newmtl Glass
Ns 94.117647
Ka 1.000000 1.000000 1.000000
Kd 0.640000 0.000000 0.002934
Ks 0.500000 0.500000 0.500000
Ke 0.000000 0.000000 0.000000
Ni 1.000000
d 1.000000
illum 2

newmtl Green
Ns 94.117647
Ka 1.000000 1.000000 1.000000
Kd 0.640000 0.640000 0.640000
Ks 0.500000 0.500000 0.500000
Ke 0.000000 0.000000 0.000000
Ni 1.000000
d 1.000000
illum 2

newmtl Material.001
Ns 96.078431
Ka 1.000000 1.000000 1.000000
Kd 0.016303 0.016303 0.016303
Ks 0.500000 0.500000 0.500000
Ke 0.000000 0.000000 0.000000
Ni 1.000000
d 1.000000
illum 2

newmtl Material.004
Ns 94.117647
Ka 1.000000 1.000000 1.000000
Kd 0.031063 0.031063 0.031063
Ks 0.500000 0.500000 0.500000
Ke 0.000000 0.000000 0.000000
Ni 1.000000
d 1.000000
illum 2

newmtl None
Ns 0.000000
Ka 0.000000 0.000000 0.000000
Kd 1.000000 0.380563 0.089947
Ks 0.800000 0.800000 0.800000
Ke 0.000000 0.000000 0.000000
Ni 1.000000
d 1.000000
illum 2

newmtl White
Ns 94.117647
Ka 1.000000 1.000000 1.000000
Kd 0.640000 0.431993 0.162440
Ks 0.500000 0.500000 0.500000
Ke 0.000000 0.000000 0.000000
Ni 1.000000
d 1.000000
illum 2
